%YAML 1.1
%TAG !u! tag:unity3d.com,2011:
--- !u!21 &2100000
Material:
  serializedVersion: 6
  m_ObjectHideFlags: 0
  m_PrefabParentObject: {fileID: 0}
  m_PrefabInternal: {fileID: 0}
  m_Name: LandD
  m_Shader: {fileID: 4800000, guid: c5dea036fda9f344e806a311bdd1d488, type: 3}
  m_ShaderKeywords: TCP2_DISABLE_WRAPPED_LIGHT
  m_LightmapFlags: 4
  m_EnableInstancingVariants: 0
  m_DoubleSidedGI: 0
  m_CustomRenderQueue: -1
  stringTagMap: {}
  disabledShaderPasses: []
  m_SavedProperties:
    serializedVersion: 3
    m_TexEnvs:
    - _BumpMap:
        m_Texture: {fileID: 0}
        m_Scale: {x: 1, y: 1}
        m_Offset: {x: 0, y: 0}
    - _DetailAlbedoMap:
        m_Texture: {fileID: 0}
        m_Scale: {x: 1, y: 1}
        m_Offset: {x: 0, y: 0}
    - _DetailMask:
        m_Texture: {fileID: 0}
        m_Scale: {x: 1, y: 1}
        m_Offset: {x: 0, y: 0}
    - _DetailNormalMap:
        m_Texture: {fileID: 0}
        m_Scale: {x: 1, y: 1}
        m_Offset: {x: 0, y: 0}
    - _EmissionMap:
        m_Texture: {fileID: 0}
        m_Scale: {x: 1, y: 1}
        m_Offset: {x: 0, y: 0}
    - _MainTex:
        m_Texture: {fileID: 2800000, guid: 9ab2a3af103324c4081316ab8714c39b, type: 3}
        m_Scale: {x: 1, y: 1}
        m_Offset: {x: 0, y: 0}
    - _MetallicGlossMap:
        m_Texture: {fileID: 0}
        m_Scale: {x: 1, y: 1}
        m_Offset: {x: 0, y: 0}
    - _OcclusionMap:
        m_Texture: {fileID: 0}
        m_Scale: {x: 1, y: 1}
        m_Offset: {x: 0, y: 0}
    - _ParallaxMap:
        m_Texture: {fileID: 0}
        m_Scale: {x: 1, y: 1}
        m_Offset: {x: 0, y: 0}
    - _Ramp:
        m_Texture: {fileID: 2800000, guid: a2daa9b606711a643808bebed4c59a0c, type: 3}
        m_Scale: {x: 1, y: 1}
        m_Offset: {x: 0, y: 0}
    m_Floats:
    - _BumpScale: 1
    - _Cutoff: 0.5
    - _DetailNormalMapScale: 1
    - _DstBlend: 0
    - _DstBlendOutline: 0
    - _GlossMapScale: 1
    - _Glossiness: 0.5
    - _GlossyReflections: 1
    - _HighlightMultiplier: 0.84
    - _Metallic: 0
    - _Mode: 0
    - _OcclusionStrength: 1
    - _Offset1: 0
    - _Offset2: 0
    - _Outline: 1
    - _Parallax: 0.02
    - _RampSmooth: 0.238
    - _RampThreshold: 0.576
    - _RimMax: 1
    - _RimMin: 1
    - _ShadowMultiplier: 4
    - _Shininess: 0.1
    - _SmoothnessTextureChannel: 0
    - _SpecSmooth: 0.05
    - _SpecularHighlights: 1
    - _SrcBlend: 1
    - _SrcBlendOutline: 1
    - _TexLod: 5
    - _UVSec: 0
    - _ZSmooth: 0.5
    - _ZWrite: 1
    - __dummy__: 0
    m_Colors:
    - _Color: {r: 1, g: 1, b: 1, a: 1}
    - _EmissionColor: {r: 0, g: 0, b: 0, a: 1}
    - _HColor: {r: 0.9485294, g: 0.9485294, b: 0.9485294, a: 1}
    - _OutlineColor: {r: 0, g: 0.95862055, b: 1, a: 1}
    - _RimColor: {r: 0, g: 0.7931032, b: 1, a: 1}
    - _RimDir: {r: 0, g: 0, b: 1, a: 0}
    - _SColor: {r: 0.85294116, g: 0.8024221, b: 0.7525951, a: 1}
    - _SpecColor: {r: 0.5, g: 0.5, b: 0.5, a: 1}
