%YAML 1.1
%TAG !u! tag:unity3d.com,2011:
--- !u!1 &131652
GameObject:
  m_ObjectHideFlags: 0
  m_PrefabParentObject: {fileID: 0}
  m_PrefabInternal: {fileID: 100100000}
  serializedVersion: 5
  m_Component:
  - component: {fileID: 425940}
  - component: {fileID: 11406510}
  m_Layer: 0
  m_Name: Default Input Manager
  m_TagString: Untagged
  m_Icon: {fileID: 0}
  m_NavMeshLayer: 0
  m_StaticEditorFlags: 0
  m_IsActive: 1
--- !u!1 &142006
GameObject:
  m_ObjectHideFlags: 0
  m_PrefabParentObject: {fileID: 0}
  m_PrefabInternal: {fileID: 100100000}
  serializedVersion: 5
  m_Component:
  - component: {fileID: 424810}
  - component: {fileID: 11448502}
  - component: {fileID: 11435026}
  - component: {fileID: 11493916}
  m_Layer: 0
  m_Name: XimmerseInput
  m_TagString: Untagged
  m_Icon: {fileID: 0}
  m_NavMeshLayer: 0
  m_StaticEditorFlags: 0
  m_IsActive: 1
--- !u!1 &156184
GameObject:
  m_ObjectHideFlags: 0
  m_PrefabParentObject: {fileID: 0}
  m_PrefabInternal: {fileID: 100100000}
  serializedVersion: 5
  m_Component:
  - component: {fileID: 465416}
  - component: {fileID: 11498760}
  m_Layer: 0
  m_Name: GoogleVRInput
  m_TagString: Untagged
  m_Icon: {fileID: 0}
  m_NavMeshLayer: 0
  m_StaticEditorFlags: 0
  m_IsActive: 1
--- !u!1 &162444
GameObject:
  m_ObjectHideFlags: 0
  m_PrefabParentObject: {fileID: 0}
  m_PrefabInternal: {fileID: 100100000}
  serializedVersion: 5
  m_Component:
  - component: {fileID: 454866}
  - component: {fileID: 11493082}
  m_Layer: 0
  m_Name: XInput
  m_TagString: Untagged
  m_Icon: {fileID: 0}
  m_NavMeshLayer: 0
  m_StaticEditorFlags: 0
  m_IsActive: 1
--- !u!1 &163568
GameObject:
  m_ObjectHideFlags: 0
  m_PrefabParentObject: {fileID: 0}
  m_PrefabInternal: {fileID: 100100000}
  serializedVersion: 5
  m_Component:
  - component: {fileID: 476202}
  m_Layer: 0
  m_Name: '--------------------------------'
  m_TagString: Untagged
  m_Icon: {fileID: 0}
  m_NavMeshLayer: 0
  m_StaticEditorFlags: 0
  m_IsActive: 1
--- !u!1 &164288
GameObject:
  m_ObjectHideFlags: 0
  m_PrefabParentObject: {fileID: 0}
  m_PrefabInternal: {fileID: 100100000}
  serializedVersion: 5
  m_Component:
  - component: {fileID: 469782}
  - component: {fileID: 11409708}
  m_Layer: 0
  m_Name: UnityInput
  m_TagString: Untagged
  m_Icon: {fileID: 0}
  m_NavMeshLayer: 0
  m_StaticEditorFlags: 0
  m_IsActive: 1
--- !u!1 &165336
GameObject:
  m_ObjectHideFlags: 0
  m_PrefabParentObject: {fileID: 0}
  m_PrefabInternal: {fileID: 100100000}
  serializedVersion: 5
  m_Component:
  - component: {fileID: 442040}
  - component: {fileID: 11410818}
  m_Layer: 0
  m_Name: OpenVR
  m_TagString: Untagged
  m_Icon: {fileID: 0}
  m_NavMeshLayer: 0
  m_StaticEditorFlags: 0
  m_IsActive: 1
--- !u!4 &424810
Transform:
  m_ObjectHideFlags: 1
  m_PrefabParentObject: {fileID: 0}
  m_PrefabInternal: {fileID: 100100000}
  m_GameObject: {fileID: 142006}
  m_LocalRotation: {x: 0, y: 0, z: 0, w: 1}
  m_LocalPosition: {x: 0, y: 0, z: 0}
  m_LocalScale: {x: 1, y: 1, z: 1}
  m_Children: []
  m_Father: {fileID: 425940}
  m_RootOrder: 0
  m_LocalEulerAnglesHint: {x: 0, y: 0, z: 0}
--- !u!4 &425940
Transform:
  m_ObjectHideFlags: 1
  m_PrefabParentObject: {fileID: 0}
  m_PrefabInternal: {fileID: 100100000}
  m_GameObject: {fileID: 131652}
  m_LocalRotation: {x: 0, y: 0, z: 0, w: 1}
  m_LocalPosition: {x: 0, y: 0, z: 0}
  m_LocalScale: {x: 1, y: 1, z: 1}
  m_Children:
  - {fileID: 424810}
  - {fileID: 442040}
  - {fileID: 476202}
  - {fileID: 469782}
  - {fileID: 454866}
  - {fileID: 465416}
  m_Father: {fileID: 0}
  m_RootOrder: 0
  m_LocalEulerAnglesHint: {x: 0, y: 0, z: 0}
--- !u!4 &442040
Transform:
  m_ObjectHideFlags: 1
  m_PrefabParentObject: {fileID: 0}
  m_PrefabInternal: {fileID: 100100000}
  m_GameObject: {fileID: 165336}
  m_LocalRotation: {x: 0, y: 0, z: 0, w: 1}
  m_LocalPosition: {x: 0, y: 0, z: 0}
  m_LocalScale: {x: 1, y: 1, z: 1}
  m_Children: []
  m_Father: {fileID: 425940}
  m_RootOrder: 1
--- !u!4 &454866
Transform:
  m_ObjectHideFlags: 1
  m_PrefabParentObject: {fileID: 0}
  m_PrefabInternal: {fileID: 100100000}
  m_GameObject: {fileID: 162444}
  m_LocalRotation: {x: 0, y: 0, z: 0, w: 1}
  m_LocalPosition: {x: 0, y: 0, z: 0}
  m_LocalScale: {x: 1, y: 1, z: 1}
  m_Children: []
  m_Father: {fileID: 425940}
  m_RootOrder: 3
  m_LocalEulerAnglesHint: {x: 0, y: 0, z: 0}
--- !u!4 &465416
Transform:
  m_ObjectHideFlags: 1
  m_PrefabParentObject: {fileID: 0}
  m_PrefabInternal: {fileID: 100100000}
  m_GameObject: {fileID: 156184}
  m_LocalRotation: {x: 0, y: 0, z: 0, w: 1}
  m_LocalPosition: {x: 0, y: 0, z: 0}
  m_LocalScale: {x: 1, y: 1, z: 1}
  m_Children: []
  m_Father: {fileID: 425940}
  m_RootOrder: 4
  m_LocalEulerAnglesHint: {x: 0, y: 0, z: 0}
--- !u!4 &469782
Transform:
  m_ObjectHideFlags: 1
  m_PrefabParentObject: {fileID: 0}
  m_PrefabInternal: {fileID: 100100000}
  m_GameObject: {fileID: 164288}
  m_LocalRotation: {x: 0, y: 0, z: 0, w: 1}
  m_LocalPosition: {x: 0, y: 0, z: 0}
  m_LocalScale: {x: 1, y: 1, z: 1}
  m_Children: []
  m_Father: {fileID: 425940}
  m_RootOrder: 2
  m_LocalEulerAnglesHint: {x: 0, y: 0, z: 0}
--- !u!4 &476202
Transform:
  m_ObjectHideFlags: 1
  m_PrefabParentObject: {fileID: 0}
  m_PrefabInternal: {fileID: 100100000}
  m_GameObject: {fileID: 163568}
  m_LocalRotation: {x: 0, y: 0, z: 0, w: 1}
  m_LocalPosition: {x: 0, y: 0, z: 0}
  m_LocalScale: {x: 1, y: 1, z: 1}
  m_Children: []
  m_Father: {fileID: 425940}
  m_RootOrder: 1
  m_LocalEulerAnglesHint: {x: 0, y: 0, z: 0}
--- !u!114 &11406510
MonoBehaviour:
  m_ObjectHideFlags: 1
  m_PrefabParentObject: {fileID: 0}
  m_PrefabInternal: {fileID: 100100000}
  m_GameObject: {fileID: 131652}
  m_Enabled: 1
  m_EditorHideFlags: 0
  m_Script: {fileID: 11500000, guid: 6e480c919d4caf44f86b0515efdb8b32, type: 3}
  m_Name: 
  m_EditorClassIdentifier: 
  monoInputModules:
  - {fileID: 11448502}
  - {fileID: 11435026}
  - {fileID: 11493916}
  - {fileID: 11410818}
  dontDestroyOnLoad: 1
  m_ControllerDataTxt: {fileID: 4900000, guid: 00baab2769d460b44affd4dab1726f2c, type: 3}
  m_OnInitialized:
    m_PersistentCalls:
      m_Calls: []
    m_TypeName: UnityEngine.Events.UnityEvent, UnityEngine, Version=0.0.0.0, Culture=neutral,
      PublicKeyToken=null
--- !u!114 &11409708
MonoBehaviour:
  m_ObjectHideFlags: 1
  m_PrefabParentObject: {fileID: 0}
  m_PrefabInternal: {fileID: 100100000}
  m_GameObject: {fileID: 164288}
  m_Enabled: 1
  m_EditorHideFlags: 0
  m_Script: {fileID: 11500000, guid: b595e1e627707b248a9c4bdb3599526c, type: 3}
  m_Name: 
  m_EditorClassIdentifier: 
  updateBySelf: 0
  maxControllers: 3
  inputTransforms:
  - {fileID: 11400000, guid: a1d66b0899135454c8be98f929fc2790, type: 2}
  - {fileID: 11400000, guid: fe1feb282ad0dc54db9076a7665272b3, type: 2}
  - {fileID: 11400000, guid: 4d3c6dd21b08312498f323c28e48879e, type: 2}
--- !u!114 &11410818
MonoBehaviour:
  m_ObjectHideFlags: 1
  m_PrefabParentObject: {fileID: 0}
  m_PrefabInternal: {fileID: 100100000}
  m_GameObject: {fileID: 165336}
  m_Enabled: 1
  m_EditorHideFlags: 0
  m_Script: {fileID: 11500000, guid: dd51c71d764474a46a60e6ad6399fc99, type: 3}
  m_Name: 
  m_EditorClassIdentifier: 
--- !u!114 &11435026
MonoBehaviour:
  m_ObjectHideFlags: 1
  m_PrefabParentObject: {fileID: 0}
  m_PrefabInternal: {fileID: 100100000}
  m_GameObject: {fileID: 142006}
  m_Enabled: 1
  m_EditorHideFlags: 0
  m_Script: {fileID: 11500000, guid: 85110cd5ffae04f49940190f0d5a83ef, type: 3}
  m_Name: 
  m_EditorClassIdentifier: 
  deviceName: XHawk-0
  sensitivity: {x: 1, y: 1, z: 1}
  trackingSpace: {fileID: 0}
  anchor: {fileID: 0}
  m_EnableEmulatedHand: 1
  m_EmulatedHands:
  - addedElbowHeight: 0
    addedElbowDepth: 0
    pointerTiltAngle: 15
    fadeDistanceFromFace: 0.32
    tooltipMinDistanceFromFace: 0.45
    followGaze: 1
    useAccelerometer: 0
    name: LeftController
    defaultNode: 2
    handedness: 1
    m_Materials:
    - {fileID: 2100000, guid: b489e65fc6e0c0d499747a0b9523d584, type: 2}
    - {fileID: 2100000, guid: b489e65fc6e0c0d499747a0b9523d584, type: 2}
  - addedElbowHeight: 0
    addedElbowDepth: 0
    pointerTiltAngle: 15
    fadeDistanceFromFace: 0.32
    tooltipMinDistanceFromFace: 0.45
    followGaze: 1
    useAccelerometer: 0
    name: RightController
    defaultNode: 2
    handedness: 2
    m_Materials:
    - {fileID: 2100000, guid: b489e65fc6e0c0d499747a0b9523d584, type: 2}
    - {fileID: 2100000, guid: b489e65fc6e0c0d499747a0b9523d584, type: 2}
  m_Controllers:
  - key: XCobra-0
    value: 0
  - key: XCobra-1
    value: 1
  makeSmooth: 1
--- !u!114 &11448502
MonoBehaviour:
  m_ObjectHideFlags: 1
  m_PrefabParentObject: {fileID: 0}
  m_PrefabInternal: {fileID: 100100000}
  m_GameObject: {fileID: 142006}
  m_Enabled: 1
  m_EditorHideFlags: 0
  m_Script: {fileID: 11500000, guid: f88032272c207ff4fb68683bd6d0cf2c, type: 3}
  m_Name: 
  m_EditorClassIdentifier: 
  deviceName: XHawk-0
  sensitivity: {x: 1, y: 1, z: 1}
  trackingSpace: {fileID: 0}
  anchor: {fileID: 0}
  m_EnableEmulatedHand: 1
  m_EmulatedHands:
  - addedElbowHeight: 0
    addedElbowDepth: 0
    pointerTiltAngle: 15
    fadeDistanceFromFace: 0.32
    tooltipMinDistanceFromFace: 0.45
    followGaze: 1
    useAccelerometer: 0
    name: LeftController
    defaultNode: 2
    handedness: 1
    m_Materials:
    - {fileID: 2100000, guid: b489e65fc6e0c0d499747a0b9523d584, type: 2}
    - {fileID: 2100000, guid: b489e65fc6e0c0d499747a0b9523d584, type: 2}
  - addedElbowHeight: 0
    addedElbowDepth: 0
    pointerTiltAngle: 15
    fadeDistanceFromFace: 0.32
    tooltipMinDistanceFromFace: 0.45
    followGaze: 1
    useAccelerometer: 0
    name: RightController
    defaultNode: 2
    handedness: 2
    m_Materials:
    - {fileID: 2100000, guid: b489e65fc6e0c0d499747a0b9523d584, type: 2}
    - {fileID: 2100000, guid: b489e65fc6e0c0d499747a0b9523d584, type: 2}
  m_Controllers:
  - key: XCobra-0
    value: 0
  - key: XCobra-1
    value: 1
  - key: VRDevice
    value: 2
  anchorPrefab: {fileID: 164232, guid: e4c313672af41d3419391898499e2ece, type: 2}
  makeTrackerForward: 0
  useAutoRecenter: 1
  autoRecenterMinAngle: 5
  useExperimental: 1
  alignNeedTime: 1
  uiAlignSprite: {fileID: 21300000, guid: 852dbf5d72c9dcb4f8ace1d5a68fa5e3, type: 3}
  uiXHawkSprite: {fileID: 21300000, guid: 06f048122c5385e40aaffe999c632ab5, type: 3}
  uiLookAtSprite: {fileID: 21300000, guid: 6862ada52ac588241881098ef6cd5e15, type: 3}
  uiAutoRecenter: {fileID: 127456, guid: 3e1ca72571e081d4d8cce30b86a90a13, type: 2}
--- !u!114 &11493082
MonoBehaviour:
  m_ObjectHideFlags: 1
  m_PrefabParentObject: {fileID: 0}
  m_PrefabInternal: {fileID: 100100000}
  m_GameObject: {fileID: 162444}
  m_Enabled: 1
  m_EditorHideFlags: 0
  m_Script: {fileID: 11500000, guid: 1a6e53760ae906046bf9d869cb7a631e, type: 3}
  m_Name: 
  m_EditorClassIdentifier: 
  updateBySelf: 0
  maxControllers: 1
  inputTransforms:
  - {fileID: 11400000, guid: 1700973ac6046c445b34f90639244c33, type: 2}
  pluginVersion: 2
  vibrationNumLevels: 20
--- !u!114 &11493916
MonoBehaviour:
  m_ObjectHideFlags: 1
  m_PrefabParentObject: {fileID: 0}
  m_PrefabInternal: {fileID: 100100000}
  m_GameObject: {fileID: 142006}
  m_Enabled: 1
  m_EditorHideFlags: 0
  m_Script: {fileID: 11500000, guid: 0c7bc4f11bb09de4faa7088f4416c6dc, type: 3}
  m_Name: 
  m_EditorClassIdentifier: 
  m_Controllers:
  - addedElbowHeight: 0
    addedElbowDepth: 0
    pointerTiltAngle: 15
    fadeDistanceFromFace: 0.32
    tooltipMinDistanceFromFace: 0.45
    followGaze: 1
    useAccelerometer: 0
    name: XCobra-0
    defaultNode: 3
    handedness: 1
    m_Materials:
    - {fileID: 2100000, guid: b489e65fc6e0c0d499747a0b9523d584, type: 2}
    - {fileID: 2100000, guid: b489e65fc6e0c0d499747a0b9523d584, type: 2}
  - addedElbowHeight: 0
    addedElbowDepth: 0
    pointerTiltAngle: 15
    fadeDistanceFromFace: 0.32
    tooltipMinDistanceFromFace: 0.45
    followGaze: 1
    useAccelerometer: 0
    name: XCobra-1
    defaultNode: 3
    handedness: 2
    m_Materials:
    - {fileID: 2100000, guid: b489e65fc6e0c0d499747a0b9523d584, type: 2}
    - {fileID: 2100000, guid: b489e65fc6e0c0d499747a0b9523d584, type: 2}
--- !u!114 &11498760
MonoBehaviour:
  m_ObjectHideFlags: 1
  m_PrefabParentObject: {fileID: 0}
  m_PrefabInternal: {fileID: 100100000}
  m_GameObject: {fileID: 156184}
  m_Enabled: 1
  m_EditorHideFlags: 0
  m_Script: {fileID: 11500000, guid: 6bc5e5e10baa8ad449523e430b4ef7ad, type: 3}
  m_Name: 
  m_EditorClassIdentifier: 
  updateBySelf: 0
  maxControllers: 1
  inputTransforms:
  - {fileID: 0}
  emulatorConnectionMode: 1
  type: 2
  priority: 12
--- !u!1001 &100100000
Prefab:
  m_ObjectHideFlags: 1
  serializedVersion: 2
  m_Modification:
    m_TransformParent: {fileID: 0}
    m_Modifications:
    - target: {fileID: 0}
      propertyPath: m_Controllers.Array.size
      value: 2
      objectReference: {fileID: 0}
    - target: {fileID: 0}
      propertyPath: monoInputModules.Array.size
      value: 6
      objectReference: {fileID: 0}
    - target: {fileID: 0}
      propertyPath: anchorPrefab
      value: 
      objectReference: {fileID: 164232, guid: e4c313672af41d3419391898499e2ece, type: 2}
    - target: {fileID: 0}
      propertyPath: m_IsActive
      value: 1
      objectReference: {fileID: 0}
    - target: {fileID: 0}
      propertyPath: controllerDeviceManagers.Array.data[0]
      value: 
      objectReference: {fileID: 11409708}
    - target: {fileID: 0}
      propertyPath: monoInputModules.Array.data[3]
      value: 
      objectReference: {fileID: 11409708}
    - target: {fileID: 0}
      propertyPath: monoInputModules.Array.data[2]
      value: 
      objectReference: {fileID: 0}
    - target: {fileID: 0}
      propertyPath: monoInputModules.Array.data[4]
      value: 
      objectReference: {fileID: 11493082}
    - target: {fileID: 0}
      propertyPath: monoInputModules.Array.data[1]
      value: 
      objectReference: {fileID: 0}
    - target: {fileID: 0}
      propertyPath: priority
      value: 12
      objectReference: {fileID: 0}
    - target: {fileID: 0}
      propertyPath: monoInputModules.Array.data[5]
      value: 
      objectReference: {fileID: 11498760}
    - target: {fileID: 0}
      propertyPath: m_Name
      value: XimmerseInput
      objectReference: {fileID: 0}
    - target: {fileID: 0}
      propertyPath: m_Controllers.Array.data[2].key
      value: VRDevice
      objectReference: {fileID: 0}
    - target: {fileID: 0}
      propertyPath: m_Controllers.Array.data[2].value
      value: 2
      objectReference: {fileID: 0}
    - target: {fileID: 0}
      propertyPath: makeSmooth
      value: 1
      objectReference: {fileID: 0}
    - target: {fileID: 0}
      propertyPath: deviceName
      value: XHawk-0
      objectReference: {fileID: 0}
    m_RemovedComponents: []
  m_ParentPrefab: {fileID: 0}
  m_RootGameObject: {fileID: 131652}
  m_IsPrefabParent: 1
