%YAML 1.1
%TAG !u! tag:unity3d.com,2011:
--- !u!1 &152404
GameObject:
  m_ObjectHideFlags: 0
  m_PrefabParentObject: {fileID: 0}
  m_PrefabInternal: {fileID: 100100000}
  serializedVersion: 4
  m_Component:
  - 4: {fileID: 438706}
  - 114: {fileID: 11432660}
  m_Layer: 0
  m_Name: Default Haptics Library
  m_TagString: Untagged
  m_Icon: {fileID: 0}
  m_NavMeshLayer: 0
  m_StaticEditorFlags: 0
  m_IsActive: 1
--- !u!4 &438706
Transform:
  m_ObjectHideFlags: 1
  m_PrefabParentObject: {fileID: 0}
  m_PrefabInternal: {fileID: 100100000}
  m_GameObject: {fileID: 152404}
  m_LocalRotation: {x: 0, y: 0, z: 0, w: 1}
  m_LocalPosition: {x: 0, y: 0, z: 0}
  m_LocalScale: {x: 1, y: 1, z: 1}
  m_Children: []
  m_Father: {fileID: 0}
  m_RootOrder: 0
--- !u!114 &11432660
MonoBehaviour:
  m_ObjectHideFlags: 1
  m_PrefabParentObject: {fileID: 0}
  m_PrefabInternal: {fileID: 100100000}
  m_GameObject: {fileID: 152404}
  m_Enabled: 1
  m_EditorHideFlags: 0
  m_Script: {fileID: 11500000, guid: 8431182fd6c42ab48acdb045b126253d, type: 3}
  m_Name: 
  m_EditorClassIdentifier: 
  m_HapticsDescs:
  - key: Default
    intValue0: 20
    intValue1: 0
    objValue: {fileID: 0}
  - key: Light
    intValue0: 10
    intValue1: 0
    objValue: {fileID: 0}
  - key: Heavy
    intValue0: 60
    intValue1: 0
    objValue: {fileID: 0}
--- !u!1001 &100100000
Prefab:
  m_ObjectHideFlags: 1
  serializedVersion: 2
  m_Modification:
    m_TransformParent: {fileID: 0}
    m_Modifications:
    - target: {fileID: 0}
      propertyPath: m_HapticsDescs.Array.size
      value: 3
      objectReference: {fileID: 0}
    - target: {fileID: 0}
      propertyPath: m_HapticsDescs.Array.data[1].key
      value: Light
      objectReference: {fileID: 0}
    - target: {fileID: 0}
      propertyPath: m_HapticsDescs.Array.data[2].key
      value: Heavy
      objectReference: {fileID: 0}
    - target: {fileID: 0}
      propertyPath: m_HapticsDescs.Array.data[2].intValue0
      value: 60
      objectReference: {fileID: 0}
    - target: {fileID: 0}
      propertyPath: m_HapticsDescs.Array.data[1].intValue0
      value: 10
      objectReference: {fileID: 0}
    m_RemovedComponents: []
  m_ParentPrefab: {fileID: 0}
  m_RootGameObject: {fileID: 152404}
  m_IsPrefabParent: 1
