%YAML 1.1
%TAG !u! tag:unity3d.com,2011:
--- !u!21 &2100000
Material:
  serializedVersion: 6
  m_ObjectHideFlags: 0
  m_PrefabParentObject: {fileID: 0}
  m_PrefabInternal: {fileID: 0}
  m_Name: pool water 1
  m_Shader: {fileID: 4800000, guid: 22e7e776a6543c740a2df01228249cd1, type: 3}
  m_ShaderKeywords: 
  m_LightmapFlags: 4
  m_EnableInstancingVariants: 0
  m_DoubleSidedGI: 0
  m_CustomRenderQueue: -1
  stringTagMap: {}
  disabledShaderPasses: []
  m_SavedProperties:
    serializedVersion: 3
    m_TexEnvs:
    - _Diffuse:
        m_Texture: {fileID: 2800000, guid: a66396a510a666741926774b7878cf62, type: 3}
        m_Scale: {x: 1, y: 1}
        m_Offset: {x: 0, y: 0}
    - _MainTex:
        m_Texture: {fileID: 2800000, guid: 7936ef474f4d2244b8ae0e25c5dca344, type: 3}
        m_Scale: {x: 1, y: 1}
        m_Offset: {x: 0, y: 0}
    - _NoiseTex:
        m_Texture: {fileID: 2800000, guid: bc92acf5df58f0b49aabb669974de3ac, type: 3}
        m_Scale: {x: 1, y: 1}
        m_Offset: {x: 0, y: 0}
    - _Ramp:
        m_Texture: {fileID: 2800000, guid: 181ec605fb3b4314bbee61db18ab41c0, type: 3}
        m_Scale: {x: 1, y: 1}
        m_Offset: {x: 0, y: 0}
    - _flowmap:
        m_Texture: {fileID: 2800000, guid: 6b081b9c88782e6478595d9c72a714d1, type: 3}
        m_Scale: {x: 1, y: 1}
        m_Offset: {x: 0, y: 0}
    - _masktexture:
        m_Texture: {fileID: 2800000, guid: e91b61bbb1d59504f9f9c5e5405618ff, type: 3}
        m_Scale: {x: 1, y: 1}
        m_Offset: {x: 0, y: 0}
    - _node_1149:
        m_Texture: {fileID: 2800000, guid: 6227bbe8a7040ec4da96871df91c4fd6, type: 3}
        m_Scale: {x: 1, y: 1}
        m_Offset: {x: 0, y: 0}
    - _node_3770:
        m_Texture: {fileID: 2800000, guid: 6227bbe8a7040ec4da96871df91c4fd6, type: 3}
        m_Scale: {x: 1, y: 1}
        m_Offset: {x: 0, y: 0}
    - _node_4:
        m_Texture: {fileID: 0}
        m_Scale: {x: 1, y: 1}
        m_Offset: {x: 0, y: 0}
    - _node_4563:
        m_Texture: {fileID: 2800000, guid: 6227bbe8a7040ec4da96871df91c4fd6, type: 3}
        m_Scale: {x: 1, y: 1}
        m_Offset: {x: 0, y: 0}
    - _node_4835:
        m_Texture: {fileID: 0}
        m_Scale: {x: 1, y: 1}
        m_Offset: {x: 0, y: 0}
    - _node_598:
        m_Texture: {fileID: 2800000, guid: 81a2f6c5e6c18e34da427a933a9b928b, type: 3}
        m_Scale: {x: 1, y: 1}
        m_Offset: {x: 0, y: 0}
    - _node_6792:
        m_Texture: {fileID: 2800000, guid: 6227bbe8a7040ec4da96871df91c4fd6, type: 3}
        m_Scale: {x: 1, y: 1}
        m_Offset: {x: 0, y: 0}
    - _node_825:
        m_Texture: {fileID: 2800000, guid: a66396a510a666741926774b7878cf62, type: 3}
        m_Scale: {x: 1, y: 1}
        m_Offset: {x: 0, y: 0}
    - _noise:
        m_Texture: {fileID: 2800000, guid: 6227bbe8a7040ec4da96871df91c4fd6, type: 3}
        m_Scale: {x: 1, y: 1}
        m_Offset: {x: 0, y: 0}
    - _rimtexture:
        m_Texture: {fileID: 2800000, guid: 81a2f6c5e6c18e34da427a933a9b928b, type: 3}
        m_Scale: {x: 1, y: 1}
        m_Offset: {x: 0, y: 0}
    - _texture:
        m_Texture: {fileID: 2800000, guid: 7936ef474f4d2244b8ae0e25c5dca344, type: 3}
        m_Scale: {x: 1, y: 1}
        m_Offset: {x: 0, y: 0}
    m_Floats:
    - _Area: 0
    - _DisAmount: 0.01
    - _DisLineWidth: 0
    - _Gloss: 0.286
    - _NScale: 1
    - _flowspeed: 0.0404
    - _flowstrengh: 0.0234
    - _node_1032: 1
    - _node_1163: 0.037
    - _node_1241: 0.353
    - _node_1419: 1
    - _node_218: 0
    - _node_2921: -0.03
    - _node_3504: 0.5
    - _node_4958: 1
    - _node_537: 0.5
    - _node_5878: 1
    - _node_817: 0.279
    - _node_8988: 0
    - _node_9219: 0.8615128
    - _node_9643: 0.8632479
    - _rimflowspeed: 0.26
    - _rimrange: 0.16
    - _rimstrengh: 0.714
    m_Colors:
    - _Color: {r: 1, g: 1, b: 1, a: 1}
    - _DisLineColor: {r: 1, g: 1, b: 1, a: 1}
    - _SpecColor: {r: 1, g: 1, b: 1, a: 1}
    - _mainccolor: {r: 0.8602941, g: 0.97687626, b: 1, a: 1}
    - _node_5612: {r: 0.5, g: 0.5, b: 0.5, a: 1}
    - _rimcolor: {r: 0.9117647, g: 1, b: 1, a: 1}
